{
    "compilerOptions": {
        "target": "esnext",
        "watch": true,
        "lib": ["dom", "es2020"],
        "module": "commonjs",
        "sourceMap": true,
        "outFile": "~/scripts/main.js"
    }
}